{"pagination": {"current_page": 1, "total": 460, "total_pages": 46, "per_page": 10}, "facets": [{"type": "price", "facets": [{"id": "526dac737f55b742d5002065", "count": 229}, {"id": "526dac747f55b742d50020d3", "count": 107}, {"id": "526dac727f55b742d5002063", "count": 71}, {"id": "526dac747f55b742d50020d5", "count": 53}]}, {"type": "essentials", "facets": [{"id": "526dac727f55b742d5002053", "count": 215}, {"id": "526dac727f55b742d5002055", "count": 58}, {"id": "526dac727f55b742d5002051", "count": 42}]}, {"type": "zeplus", "facets": [{"id": "526dac727f55b742d500203f", "count": 326}, {"id": "526dac727f55b742d5002037", "count": 268}, {"id": "529707fc42719aba96000001", "count": 250}, {"id": "526dac727f55b742d5002035", "count": 208}, {"id": "526dac727f55b742d5002045", "count": 195}, {"id": "526dac727f55b742d500203b", "count": 157}, {"id": "526dac727f55b742d500203d", "count": 73}, {"id": "526dac727f55b742d5002041", "count": 68}, {"id": "526dac727f55b742d500204d", "count": 63}, {"id": "526dac727f55b742d5002043", "count": 45}, {"id": "526dac727f55b742d5002049", "count": 43}, {"id": "526dac727f55b742d500204b", "count": 41}]}], "results": [{"id": "5db9cca342719ae4a3000240", "type": "Restaurant", "name": "Shinjuku Pigalle", "address": {"_id": "5db9cca342719ae4a300023f", "city": "Paris", "country": "France", "created_at": "2019-10-30T18:47:15+01:00", "department": "Paris", "position": [48.88030209999999, 2.34318559999997], "postal_code": "75009", "region": "R\u00e9gion \u00cele-de-France", "street_name_1": "52, rue Condorcet", "street_name_2": "", "updated_at": "2019-10-30T18:47:15+01:00"}, "phone_num": "+33 1 42 06 18 14", "cellphone_num": "", "cravings": ["Japonais"], "extras": ["Antid\u00e9presseur", "Manger seul "], "price": ["De 16 \u00e0 35 \u20ac"], "essentials": [], "url": "https://lefooding.com/fr/restaurants/restaurant-shinjuku-pigalle-paris", "tags": [{"category": "Les plus", "type": "zeplus", "name": "Antid\u00e9presseur"}, {"category": "Prix", "type": "price", "name": "De 16 \u00e0 35 \u20ac"}, {"category": "Cuisine", "type": "kitchen", "name": "Japonais"}, {"category": "Transport", "type": "transport", "name": "Anvers"}, {"category": "Transport", "type": "transport", "name": "Pigalle"}, {"category": "Les plus", "type": "zeplus", "name": "Manger seul "}], "sorted_tags": {"zeplus": ["Antid\u00e9presseur", "Manger seul "], "price": ["De 16 \u00e0 35 \u20ac"], "kitchen": ["Japonais"], "transport": ["Anvers", "Pigalle"]}, "website": "", "thumbnail": "/media/W1siZiIsIjIwMTkvMTAvMzAvMTlfMDVfMTVfNjQ1X3Jlc3RhdXJhbnRfc2hpbmp1a3VfcGFyaXMuanBlZyJdLFsicCIsInRodW1iIiwiMjA3eDEzNiMiXV0/restaurant-shinjuku-paris.jpeg?sha=73404f91"}, {"id": "5dc3b2a942719a7876000189", "type": "Restaurant", "name": "Basique", "address": {"_id": "5dc3b2a942719a7876000187", "city": "Paris", "country": "France", "created_at": "2019-11-07T06:59:06+01:00", "department": "Paris", "position": [48.85662629999999, 2.3794030999999904], "postal_code": "75011", "region": "R\u00e9gion \u00cele-de-France", "street_name_1": "164, av. Ledru-Rollin", "street_name_2": "", "updated_at": "2019-11-07T06:59:06+01:00"}, "phone_num": "+33 1 40 24 20 48", "cellphone_num": "", "cravings": ["Tapas"], "extras": ["Antid\u00e9presseur", "Terrasse"], "price": ["De 16 \u00e0 35 \u20ac"], "essentials": [], "url": "https://lefooding.com/fr/restaurants/restaurant-basique-paris", "tags": [{"category": "Les plus", "type": "zeplus", "name": "Antid\u00e9presseur"}, {"category": "Les plus", "type": "zeplus", "name": "Terrasse"}, {"category": "Prix", "type": "price", "name": "De 16 \u00e0 35 \u20ac"}, {"category": "Cuisine", "type": "kitchen", "name": "Tapas"}, {"category": "Transport", "type": "transport", "name": "Voltaire"}], "sorted_tags": {"zeplus": ["Antid\u00e9presseur", "Terrasse"], "price": ["De 16 \u00e0 35 \u20ac"], "kitchen": ["Tapas"], "transport": ["Voltaire"]}, "website": "", "thumbnail": "/media/W1siZiIsIjIwMTkvMTEvMDcvMDZfNTlfMDVfOTkwX3Rlc3RfMS5qcGVnIl0sWyJwIiwidGh1bWIiLCIyMDd4MTM2IyJdXQ/test%201.jpeg?sha=abc12f5b"}, {"id": "5c9129b242719a757f000413", "type": "Restaurant", "name": "Gramme", "address": {"_id": "5c9129b242719a757f000411", "city": "Paris", "country": "France", "created_at": "2019-03-19T18:41:07+01:00", "department": "Paris", "position": [48.86306279999999, 2.360760199999959], "postal_code": "75003", "region": "R\u00e9gion \u00cele-de-France", "street_name_1": "86, rue des Archives", "street_name_2": "", "updated_at": "2019-03-19T18:41:07+01:00"}, "phone_num": "+33 9 50 92 20 23", "cellphone_num": "", "cravings": ["Caf\u00e9 / Coffee Shop", "Snack / Tartes / Salades / Soupes / Bols"], "extras": ["Ouvert le dimanche", "Ouvert le lundi", "Take-away", "Antid\u00e9presseur", "Brunch"], "price": ["Moins de 15 \u20ac"], "essentials": [], "url": "https://lefooding.com/fr/restaurants/restaurant-gramme-paris", "tags": [{"category": "Les plus", "type": "zeplus", "name": "Ouvert le dimanche"}, {"category": "Les plus", "type": "zeplus", "name": "Ouvert le lundi"}, {"category": "Les plus", "type": "zeplus", "name": "Take-away"}, {"category": "Les plus", "type": "zeplus", "name": "Antid\u00e9presseur"}, {"category": "Les plus", "type": "zeplus", "name": "Brunch"}, {"category": "Prix", "type": "price", "name": "Moins de 15 \u20ac"}, {"category": "Cuisine", "type": "kitchen", "name": "Caf\u00e9 / Coffee Shop"}, {"category": "Cuisine", "type": "kitchen", "name": "Snack / Tartes / Salades / Soupes / Bols"}, {"category": "Transport", "type": "transport", "name": "Temple"}, {"category": "Transport", "type": "transport", "name": "Filles du Calvaire"}, {"category": "Transport", "type": "transport", "name": "Arts et M\u00e9tiers"}], "sorted_tags": {"zeplus": ["Ouvert le dimanche", "Ouvert le lundi", "Take-away", "Antid\u00e9presseur", "Brunch"], "price": ["Moins de 15 \u20ac"], "kitchen": ["Caf\u00e9 / Coffee Shop", "Snack / Tartes / Salades / Soupes / Bols"], "transport": ["Temple", "Filles du Calvaire", "Arts et M\u00e9tiers"]}, "website": "", "thumbnail": "/media/W1siZiIsIjIwMTkvMDMvMTkvMThfNDFfMDZfNDUxX0dSQU1NRV8yLmpwZWciXSxbInAiLCJ0aHVtYiIsIjIwN3gxMzYjIl1d/GRAMME%202.jpeg?sha=17bc9ee5"}, {"id": "5cd999f442719a064f000095", "type": "Restaurant", "name": "Chinaski", "address": {"_id": "5cd999f442719a064f000093", "city": "Paris", "country": "France", "created_at": "2019-05-13T18:23:17+02:00", "department": "Paris", "position": [48.8403583, 2.350235600000019], "postal_code": "75005", "region": "R\u00e9gion \u00cele-de-France", "street_name_1": "46, rue Daubenton", "street_name_2": "", "updated_at": "2019-05-13T18:23:17+02:00"}, "phone_num": "+33 1 73 74 74 06", "cellphone_num": "", "cravings": ["Caf\u00e9 / Coffee Shop", "Cuisine d'auteur", "N\u00e9obistrot"], "extras": ["Ouvert le dimanche", "Antid\u00e9presseur", "Terrasse", "13 \u00e0 table", "Manger seul "], "price": ["De 16 \u00e0 35 \u20ac"], "essentials": ["Feeling"], "url": "https://lefooding.com/fr/restaurants/restaurant-chinaski-paris", "tags": [{"category": "Les plus", "type": "zeplus", "name": "Ouvert le dimanche"}, {"category": "Les plus", "type": "zeplus", "name": "Antid\u00e9presseur"}, {"category": "Les plus", "type": "zeplus", "name": "Terrasse"}, {"category": "Les plus", "type": "zeplus", "name": "13 \u00e0 table"}, {"category": "Les essentiels", "type": "essentials", "name": "Feeling"}, {"category": "Prix", "type": "price", "name": "De 16 \u00e0 35 \u20ac"}, {"category": "Cuisine", "type": "kitchen", "name": "Caf\u00e9 / Coffee Shop"}, {"category": "Cuisine", "type": "kitchen", "name": "Cuisine d'auteur"}, {"category": "Cuisine", "type": "kitchen", "name": "N\u00e9obistrot"}, {"category": "Transport", "type": "transport", "name": "Censier - Daubenton"}, {"category": "Les plus", "type": "zeplus", "name": "Manger seul "}], "sorted_tags": {"zeplus": ["Ouvert le dimanche", "Antid\u00e9presseur", "Terrasse", "13 \u00e0 table", "Manger seul "], "essentials": ["Feeling"], "price": ["De 16 \u00e0 35 \u20ac"], "kitchen": ["Caf\u00e9 / Coffee Shop", "Cuisine d'auteur", "N\u00e9obistrot"], "transport": ["Censier - Daubenton"]}, "website": "www.chinaskiparis.com", "thumbnail": "/media/W1siZiIsIjIwMTkvMDUvMTMvMThfMjNfMTZfNzM1X3Jlc3RhdXJhbnRfY2hpbmFza2lfcGFyaXMuanBlZyJdLFsicCIsInRodW1iIiwiMjA3eDEzNiMiXV0/restaurant-chinaski-paris.jpeg?sha=87117044"}, {"id": "5cd3049742719a93b40000e0", "type": "Restaurant", "name": "Sucr\u00e9pice", "address": {"_id": "5cd3049742719a93b40000de", "city": "Paris", "country": "France", "created_at": "2019-05-08T18:32:24+02:00", "department": "Paris", "position": [48.84736669999999, 2.351738100000034], "postal_code": "75005", "region": "R\u00e9gion \u00cele-de-France", "street_name_1": "5, rue d'Arras", "street_name_2": "", "updated_at": "2019-05-08T18:32:24+02:00"}, "phone_num": "+33 1 72 67 11 74", "cellphone_num": "", "cravings": ["Chinois"], "extras": ["Ouvert le dimanche", "Ouvert le lundi", "Take-away", "Antid\u00e9presseur", "Manger seul "], "price": ["Moins de 15 \u20ac"], "essentials": [], "url": "https://lefooding.com/fr/restaurants/restaurant-sucrepice-paris", "tags": [{"category": "Les plus", "type": "zeplus", "name": "Ouvert le dimanche"}, {"category": "Les plus", "type": "zeplus", "name": "Ouvert le lundi"}, {"category": "Les plus", "type": "zeplus", "name": "Take-away"}, {"category": "Les plus", "type": "zeplus", "name": "Antid\u00e9presseur"}, {"category": "Prix", "type": "price", "name": "Moins de 15 \u20ac"}, {"category": "Cuisine", "type": "kitchen", "name": "Chinois"}, {"category": "Transport", "type": "transport", "name": "Cardinal Lemoine"}, {"category": "Les plus", "type": "zeplus", "name": "Manger seul "}], "sorted_tags": {"zeplus": ["Ouvert le dimanche", "Ouvert le lundi", "Take-away", "Antid\u00e9presseur", "Manger seul "], "price": ["Moins de 15 \u20ac"], "kitchen": ["Chinois"], "transport": ["Cardinal Lemoine"]}, "website": "www.sucrepice.fr", "thumbnail": "/media/W1siZiIsIjIwMTkvMDUvMDgvMThfMzJfMjNfODY1X3Jlc3RhdXJhbnRfc3VjcmVfcGljZV9wYXJpc18yLmpwZWciXSxbInAiLCJ0aHVtYiIsIjIwN3gxMzYjIl1d/restaurant-sucre%CC%81pice-paris%202.jpeg?sha=cda7f94c"}, {"id": "5a26b1e342719a13ff000019", "type": "Restaurant", "name": "Cos\u00ec", "address": {"_id": "5845940b42719a90f9000007", "city": "Paris", "country": "France", "created_at": "2016-12-05T17:21:31+01:00", "department": "Paris", "position": [48.8540863, 2.3368735000000243], "postal_code": "75006", "region": "R\u00e9gion \u00cele-de-France", "street_name_1": "54, rue de Seine", "street_name_2": "", "updated_at": "2018-11-29T11:39:07+01:00"}, "phone_num": "+33 1 46 33 35 36", "cellphone_num": "", "cravings": ["Sandwichs / Bagels", "L\u00e8che-doigts"], "extras": ["Ouvert le dimanche", "Ouvert le lundi", "Antid\u00e9presseur", "Faim de nuit", "Manger seul "], "price": ["Moins de 15 \u20ac"], "essentials": ["Feeling"], "url": "https://lefooding.com/fr/restaurants/restaurant-cosi-paris-16", "tags": [{"category": "Les plus", "type": "zeplus", "name": "Ouvert le dimanche"}, {"category": "Les plus", "type": "zeplus", "name": "Ouvert le lundi"}, {"category": "Les plus", "type": "zeplus", "name": "Antid\u00e9presseur"}, {"category": "Les plus", "type": "zeplus", "name": "Faim de nuit"}, {"category": "Les essentiels", "type": "essentials", "name": "Feeling"}, {"category": "Prix", "type": "price", "name": "Moins de 15 \u20ac"}, {"category": "Cuisine", "type": "kitchen", "name": "Sandwichs / Bagels"}, {"category": "Transport", "type": "transport", "name": "Mabillon"}, {"category": "Les plus", "type": "zeplus", "name": "Manger seul "}, {"category": "Cuisine", "type": "kitchen", "name": "L\u00e8che-doigts"}], "sorted_tags": {"zeplus": ["Ouvert le dimanche", "Ouvert le lundi", "Antid\u00e9presseur", "Faim de nuit", "Manger seul "], "essentials": ["Feeling"], "price": ["Moins de 15 \u20ac"], "kitchen": ["Sandwichs / Bagels", "L\u00e8che-doigts"], "transport": ["Mabillon"]}, "website": "", "thumbnail": "/media/W1siZiIsIjIwMTYvMDYvMDIvMTBfNTBfNDhfNTc4X3Jlc3RhdXJhbnRfY29zaV9wYXJpcy5qcGciXSxbInAiLCJ0aHVtYiIsIjIwN3gxMzYjIl1d/restaurant-cosi-paris.jpg?sha=1ae0abae"}, {"id": "5a26a5b142719aee3b000007", "type": "Restaurant", "name": "Kodawari Yokocho ", "address": {"_id": "584580d542719ae1dd00002f", "city": "Paris", "country": "France", "created_at": "2016-12-05T15:59:34+01:00", "department": "Paris", "position": [48.8546579, 2.338127100000065], "postal_code": "75006", "region": "R\u00e9gion \u00cele-de-France", "street_name_1": "29, rue Mazarine", "street_name_2": "", "updated_at": "2018-11-29T11:03:03+01:00"}, "phone_num": "+ 33 9 70 91 12 41", "cellphone_num": "", "cravings": ["Japonais"], "extras": ["Ouvert le dimanche", "Antid\u00e9presseur"], "price": ["De 16 \u00e0 35 \u20ac"], "essentials": [], "url": "https://lefooding.com/fr/restaurants/restaurant-kodawari-yokocho-paris", "tags": [{"category": "Les plus", "type": "zeplus", "name": "Ouvert le dimanche"}, {"category": "Les plus", "type": "zeplus", "name": "Antid\u00e9presseur"}, {"category": "Prix", "type": "price", "name": "De 16 \u00e0 35 \u20ac"}, {"category": "Cuisine", "type": "kitchen", "name": "Japonais"}, {"category": "Transport", "type": "transport", "name": "Od\u00e9on"}], "sorted_tags": {"zeplus": ["Ouvert le dimanche", "Antid\u00e9presseur"], "price": ["De 16 \u00e0 35 \u20ac"], "kitchen": ["Japonais"], "transport": ["Od\u00e9on"]}, "website": "kodawari-ramen.com", "thumbnail": ""}, {"id": "5d64150142719a5c10000015", "type": "Restaurant", "name": "Cuisine", "address": {"_id": "5d64150042719a5c10000013", "city": "Paris", "country": "France", "created_at": "2019-08-26T19:21:05+02:00", "department": "Paris", "position": [48.8804875, 2.343314599999985], "postal_code": "75009", "region": "R\u00e9gion \u00cele-de-France", "street_name_1": "50, rue Condorcet", "street_name_2": "", "updated_at": "2019-08-26T19:21:05+02:00"}, "phone_num": "+33 1 44 63 75 64", "cellphone_num": "", "cravings": ["N\u00e9obistrot", "Bar \u00e0 vins / Cave \u00e0 manger"], "extras": ["Ouvert le lundi", "Terrasse"], "price": ["De 16 \u00e0 35 \u20ac"], "essentials": ["Feeling"], "url": "https://lefooding.com/fr/restaurants/restaurant-cuisine-paris-2", "tags": [{"category": "Les plus", "type": "zeplus", "name": "Ouvert le lundi"}, {"category": "Les plus", "type": "zeplus", "name": "Terrasse"}, {"category": "Les essentiels", "type": "essentials", "name": "Feeling"}, {"category": "Prix", "type": "price", "name": "De 16 \u00e0 35 \u20ac"}, {"category": "Cuisine", "type": "kitchen", "name": "N\u00e9obistrot"}, {"category": "Cuisine", "type": "kitchen", "name": "Bar \u00e0 vins / Cave \u00e0 manger"}, {"category": "Transport", "type": "transport", "name": "Anvers"}], "sorted_tags": {"zeplus": ["Ouvert le lundi", "Terrasse"], "essentials": ["Feeling"], "price": ["De 16 \u00e0 35 \u20ac"], "kitchen": ["N\u00e9obistrot", "Bar \u00e0 vins / Cave \u00e0 manger"], "transport": ["Anvers"]}, "website": "www.restaurantcuisine.fr", "thumbnail": "/media/W1siZiIsIjIwMTkvMDgvMjYvMTlfMjFfMDVfMjlfcmVzdGF1cmFudF9jdWlzaW5lX3BhcmlzLmpwZyJdLFsicCIsInRodW1iIiwiMjA3eDEzNiMiXV0/restaurant-cuisine-paris.jpg?sha=a3acf3e6"}, {"id": "5d7b4d7942719a3c640000fb", "type": "Restaurant", "name": "Dumbo", "address": {"_id": "5d7b4d7942719a3c640000f9", "city": "Paris", "country": "France", "created_at": "2019-09-13T10:04:10+02:00", "department": "Paris", "position": [48.8816541, 2.3369591000000582], "postal_code": "75009", "region": "R\u00e9gion \u00cele-de-France", "street_name_1": "64, rue Jean-Baptiste Pigalle", "street_name_2": "", "updated_at": "2019-09-13T10:04:10+02:00"}, "phone_num": "Pas de t\u00e9l\u00e9phone. ", "cellphone_num": "", "cravings": ["Burgers"], "extras": ["Take-away", "Antid\u00e9presseur", "Manger seul "], "price": ["Moins de 15 \u20ac"], "essentials": [], "url": "https://lefooding.com/fr/restaurants/restaurant-dumbo-paris", "tags": [{"category": "Les plus", "type": "zeplus", "name": "Take-away"}, {"category": "Les plus", "type": "zeplus", "name": "Antid\u00e9presseur"}, {"category": "Cuisine", "type": "kitchen", "name": "Burgers"}, {"category": "Prix", "type": "price", "name": "Moins de 15 \u20ac"}, {"category": "Transport", "type": "transport", "name": "Pigalle"}, {"category": "Les plus", "type": "zeplus", "name": "Manger seul "}], "sorted_tags": {"zeplus": ["Take-away", "Antid\u00e9presseur", "Manger seul "], "kitchen": ["Burgers"], "price": ["Moins de 15 \u20ac"], "transport": ["Pigalle"]}, "website": "", "thumbnail": "/media/W1siZiIsIjIwMTkvMDkvMTMvMTBfMDRfMDlfNjUwX3Jlc3RhdXJhbnRfZHVtYm9fcGFyaXMuanBlZyJdLFsicCIsInRodW1iIiwiMjA3eDEzNiMiXV0/restaurant-dumbo-paris.jpeg?sha=f28c1631"}, {"id": "5c1a922842719aac5500015e", "type": "Restaurant", "name": "Vermillon", "address": {"_id": "5c1a922842719aac5500015c", "city": "Paris", "country": "France", "created_at": "2018-12-19T19:47:04+01:00", "department": "Paris", "position": [48.8822195, 2.3313728000000538], "postal_code": "75009", "region": "R\u00e9gion \u00cele-de-France", "street_name_1": "5, rue de Calais", "street_name_2": "", "updated_at": "2018-12-19T19:47:04+01:00"}, "phone_num": "+ 33 1 42 41 49 68", "cellphone_num": "", "cravings": ["Cuisine du march\u00e9"], "extras": ["Antid\u00e9presseur", "Terrasse"], "price": ["De 16 \u00e0 35 \u20ac"], "essentials": ["Feeling"], "url": "https://lefooding.com/fr/restaurants/restaurant-vermillon-paris", "tags": [{"category": "Les plus", "type": "zeplus", "name": "Antid\u00e9presseur"}, {"category": "Les plus", "type": "zeplus", "name": "Terrasse"}, {"category": "Les essentiels", "type": "essentials", "name": "Feeling"}, {"category": "Prix", "type": "price", "name": "De 16 \u00e0 35 \u20ac"}, {"category": "Cuisine", "type": "kitchen", "name": "Cuisine du march\u00e9"}, {"category": "Transport", "type": "transport", "name": "Blanche"}, {"category": "Transport", "type": "transport", "name": "Place de Clichy"}], "sorted_tags": {"zeplus": ["Antid\u00e9presseur", "Terrasse"], "essentials": ["Feeling"], "price": ["De 16 \u00e0 35 \u20ac"], "kitchen": ["Cuisine du march\u00e9"], "transport": ["Blanche", "Place de Clichy"]}, "website": "", "thumbnail": "/media/W1siZiIsIjIwMTgvMTIvMjAvMTBfMjJfNDBfOTIzX3Jlc3RhdXJhbnRfdmVybWlsbG9uX3BhcmlzLmpwZyJdLFsicCIsInRodW1iIiwiMjA3eDEzNiMiXV0/restaurant-vermillon-paris.jpg?sha=85ed876d"}], "preselected_filters": {"geo": [{"type": "city", "id": "526ba3f07f55b7f39a007e28", "name": "Paris", "code": "75", "selected": true}]}}